…
```{r}
library(pak)

pak("lillyschwietzer/csarGeo")
library(csarGeo)
```

## 1.2) csarGeo Package Data

The package contains three different default data files. One that contains species occurence data and sampling location coordinate information:

```{r}
data("species_data")
head(species_data)
# A tibble: 213 × 120
#   location   long     lat `accipiter gentilis` `accipiter nisus` `actitis hypoleucos` `aegithalos caudatus`
#   <chr>     <dbl>   <dbl>                <dbl>             <dbl>                <dbl>                 <dbl>
# 1 pe48m    71411.  92852.                    0                 0                    0                     0
# 2 pe48r    73396.  90836.                    0                 0                    0                     1
# 3 pe48t    73427.  94836.                    0                 0                    0                     0
# 4 pe48x    75411.  92821.                    0                 0                    0                     0
# 5 pe49k    71458.  98852.                    0                 0                    0                     0
# 6 pe49t    73505. 104836.                    0                 0                    0                     0
# 7 pe56p    81287.  76775.                    0                 0                    0                     0
# 8 pe56t    83271.  74759.                    0                 0                    0                     0
# 9 pe56x    85255.  72744.                    0                 0                    0                     0
#10 pe56z    85286.  76744.                    0                 0                    0                     0
# ℹ 203 more rows
# ℹ 113 more variables: `aegypius monachus` <dbl>, `alauda arvensis` <dbl>, `alcedo atthis` <dbl>,
#   `alectoris rufa` <dbl>, `anas platyrhynchos` <dbl>, `anthus campestris` <dbl>, `anthus pratensis` <dbl>,
#   `apus apus` <dbl>, `aquila chrysaetos` <dbl>, `ardea cinerea` <dbl>, `athene noctua` <dbl>, `bubo bubo` <dbl>,
#   `burhinus oedicnemus` <dbl>, `buteo buteo` <dbl>, `calandrella brachydactyla` <dbl>,
#   `carduelis carduelis` <dbl>, `carduelis spinus` <dbl>, `cecropis daurica` <dbl>, `certhia brachydactyla` <dbl>,
#   `cettia cetti` <dbl>, `charadrius dubius` <dbl>, `chloris chloris` <dbl>, `ciconia ciconia` <dbl>, …
# ℹ Use `print(n = ...)` to see more rows, and `colnames()` to see all variable names
```
…
